{
  "tracks": {
    "href": "https://api.spotify.com/v1/search?query=ojue&type=track&offset=0&limit=3",
    "items": [
      {
        "album": {
          "album_type": "album",
          "artists": [
            {
              "external_urls": {
                "spotify": "https://open.spotify.com/artist/3tVQdUvClmAT7URs9V3rsp"
              },
              "href": "https://api.spotify.com/v1/artists/3tVQdUvClmAT7URs9V3rsp",
              "id": "3tVQdUvClmAT7URs9V3rsp",
              "name": "WizKid",
              "type": "artist",
              "uri": "spotify:artist:3tVQdUvClmAT7URs9V3rsp"
            }
          ],
          "available_markets": [
            "AD",
            "AE",
            "AG",
            "AL",
            "AM",
            "AR",
            "AT",
            "AU",
            "AZ",
            "BA",
            "BB",
            "BD",
            "BE",
            "BF",
            "BG",
            "BH",
            "BI",
            "BN",
            "BO",
            "BR",
            "BS",
            "BT",
            "BW",
            "BY",
            "BZ",
            "CA",
            "CH",
            "CL",
            "CM",
            "CO",
            "CR",
            "CV",
            "CW",
            "CY",
            "CZ",
            "DE",
            "DK",
            "DM",
            "DO",
            "DZ",
            "EC",
            "EE",
            "EG",
            "ES",
            "FI",
            "FJ",
            "FM",
            "FR",
            "GA",
            "GB",
            "GD",
            "GE",
            "GH",
            "GM",
            "GN",
            "GQ",
            "GR",
            "GT",
            "GW",
            "GY",
            "HK",
            "HN",
            "HR",
            "HT",
            "HU",
            "ID",
            "IE",
            "IL",
            "IN",
            "IS",
            "IT",
            "JM",
            "JO",
            "JP",
            "KE",
            "KG",
            "KH",
            "KI",
            "KM",
            "KN",
            "KR",
            "KW",
            "KZ",
            "LA",
            "LB",
            "LC",
            "LI",
            "LK",
            "LR",
            "LS",
            "LT",
            "LU",
            "LV",
            "MA",
            "MC",
            "MD",
            "ME",
            "MH",
            "MK",
            "ML",
            "MN",
            "MO",
            "MR",
            "MT",
            "MV",
            "MW",
            "MX",
            "MY",
            "NA",
            "NE",
            "NG",
            "NI",
            "NL",
            "NO",
            "NP",
            "NR",
            "NZ",
            "OM",
            "PA",
            "PE",
            "PG",
            "PH",
            "PK",
            "PL",
            "PS",
            "PT",
            "PW",
            "PY",
            "QA",
            "RO",
            "RS",
            "RU",
            "RW",
            "SA",
            "SB",
            "SC",
            "SE",
            "SG",
            "SI",
            "SK",
            "SL",
            "SM",
            "SN",
            "SR",
            "ST",
            "SV",
            "SZ",
            "TD",
            "TG",
            "TH",
            "TL",
            "TN",
            "TO",
            "TR",
            "TT",
            "TV",
            "TW",
            "TZ",
            "UA",
            "UG",
            "US",
            "UY",
            "UZ",
            "VC",
            "VN",
            "VU",
            "WS",
            "XK",
            "ZA",
            "ZW"
          ],
          "external_urls": {
            "spotify": "https://open.spotify.com/album/2O8egayngzl1fm5dcE4VX9"
          },
          "href": "https://api.spotify.com/v1/albums/2O8egayngzl1fm5dcE4VX9",
          "id": "2O8egayngzl1fm5dcE4VX9",
          "images": [
            {
              "height": 640,
              "url": "https://i.scdn.co/image/ab67616d0000b2736ab931c7f2d0be44324e7b75",
              "width": 640
            },
            {
              "height": 300,
              "url": "https://i.scdn.co/image/ab67616d00001e026ab931c7f2d0be44324e7b75",
              "width": 300
            },
            {
              "height": 64,
              "url": "https://i.scdn.co/image/ab67616d000048516ab931c7f2d0be44324e7b75",
              "width": 64
            }
          ],
          "name": "Ayo",
          "release_date": "2014-09-17",
          "release_date_precision": "day",
          "total_tracks": 19,
          "type": "album",
          "uri": "spotify:album:2O8egayngzl1fm5dcE4VX9"
        },
        "artists": [
          {
            "external_urls": {
              "spotify": "https://open.spotify.com/artist/3tVQdUvClmAT7URs9V3rsp"
            },
            "href": "https://api.spotify.com/v1/artists/3tVQdUvClmAT7URs9V3rsp",
            "id": "3tVQdUvClmAT7URs9V3rsp",
            "name": "WizKid",
            "type": "artist",
            "uri": "spotify:artist:3tVQdUvClmAT7URs9V3rsp"
          }
        ],
        "available_markets": [
          "AD",
          "AE",
          "AG",
          "AL",
          "AM",
          "AR",
          "AT",
          "AU",
          "AZ",
          "BA",
          "BB",
          "BD",
          "BE",
          "BF",
          "BG",
          "BH",
          "BI",
          "BN",
          "BO",
          "BR",
          "BS",
          "BT",
          "BW",
          "BY",
          "BZ",
          "CA",
          "CH",
          "CL",
          "CM",
          "CO",
          "CR",
          "CV",
          "CW",
          "CY",
          "CZ",
          "DE",
          "DK",
          "DM",
          "DO",
          "DZ",
          "EC",
          "EE",
          "EG",
          "ES",
          "FI",
          "FJ",
          "FM",
          "FR",
          "GA",
          "GB",
          "GD",
          "GE",
          "GH",
          "GM",
          "GN",
          "GQ",
          "GR",
          "GT",
          "GW",
          "GY",
          "HK",
          "HN",
          "HR",
          "HT",
          "HU",
          "ID",
          "IE",
          "IL",
          "IN",
          "IS",
          "IT",
          "JM",
          "JO",
          "JP",
          "KE",
          "KG",
          "KH",
          "KI",
          "KM",
          "KN",
          "KR",
          "KW",
          "KZ",
          "LA",
          "LB",
          "LC",
          "LI",
          "LK",
          "LR",
          "LS",
          "LT",
          "LU",
          "LV",
          "MA",
          "MC",
          "MD",
          "ME",
          "MH",
          "MK",
          "ML",
          "MN",
          "MO",
          "MR",
          "MT",
          "MV",
          "MW",
          "MX",
          "MY",
          "NA",
          "NE",
          "NG",
          "NI",
          "NL",
          "NO",
          "NP",
          "NR",
          "NZ",
          "OM",
          "PA",
          "PE",
          "PG",
          "PH",
          "PK",
          "PL",
          "PS",
          "PT",
          "PW",
          "PY",
          "QA",
          "RO",
          "RS",
          "RU",
          "RW",
          "SA",
          "SB",
          "SC",
          "SE",
          "SG",
          "SI",
          "SK",
          "SL",
          "SM",
          "SN",
          "SR",
          "ST",
          "SV",
          "SZ",
          "TD",
          "TG",
          "TH",
          "TL",
          "TN",
          "TO",
          "TR",
          "TT",
          "TV",
          "TW",
          "TZ",
          "UA",
          "UG",
          "US",
          "UY",
          "UZ",
          "VC",
          "VN",
          "VU",
          "WS",
          "XK",
          "ZA",
          "ZW"
        ],
        "disc_number": 1,
        "duration_ms": 216242,
        "explicit": false,
        "external_ids": {
          "isrc": "ushm81492540"
        },
        "external_urls": {
          "spotify": "https://open.spotify.com/track/6cTLhp8a39TClL2iqGpPVc"
        },
        "href": "https://api.spotify.com/v1/tracks/6cTLhp8a39TClL2iqGpPVc",
        "id": "6cTLhp8a39TClL2iqGpPVc",
        "is_local": false,
        "name": "Ojuelegba",
        "popularity": 55,
        "preview_url": "https://p.scdn.co/mp3-preview/540e2b5e12b3e1de6b363ae830988282b375676d?cid=774b29d4f13844c495f206cafdad9c86",
        "track_number": 5,
        "type": "track",
        "uri": "spotify:track:6cTLhp8a39TClL2iqGpPVc"
      },
      {
        "album": {
          "album_type": "album",
          "artists": [
            {
              "external_urls": {
                "spotify": "https://open.spotify.com/artist/4Q9khBHqAxg0ztp6AvWI6x"
              },
              "href": "https://api.spotify.com/v1/artists/4Q9khBHqAxg0ztp6AvWI6x",
              "id": "4Q9khBHqAxg0ztp6AvWI6x",
              "name": "STARBOY",
              "type": "artist",
              "uri": "spotify:artist:4Q9khBHqAxg0ztp6AvWI6x"
            }
          ],
          "available_markets": [
            "AD",
            "AE",
            "AG",
            "AL",
            "AM",
            "AR",
            "AT",
            "AU",
            "AZ",
            "BA",
            "BB",
            "BD",
            "BE",
            "BF",
            "BG",
            "BH",
            "BI",
            "BN",
            "BO",
            "BR",
            "BS",
            "BT",
            "BW",
            "BY",
            "BZ",
            "CA",
            "CH",
            "CL",
            "CM",
            "CO",
            "CR",
            "CV",
            "CY",
            "CZ",
            "DE",
            "DK",
            "DM",
            "DO",
            "DZ",
            "EC",
            "EE",
            "EG",
            "ES",
            "FI",
            "FJ",
            "FM",
            "FR",
            "GA",
            "GB",
            "GD",
            "GE",
            "GH",
            "GM",
            "GN",
            "GQ",
            "GR",
            "GT",
            "GW",
            "GY",
            "HK",
            "HN",
            "HR",
            "HT",
            "HU",
            "ID",
            "IE",
            "IL",
            "IN",
            "IS",
            "IT",
            "JM",
            "JO",
            "JP",
            "KE",
            "KG",
            "KH",
            "KI",
            "KM",
            "KN",
            "KR",
            "KW",
            "KZ",
            "LA",
            "LB",
            "LC",
            "LI",
            "LK",
            "LR",
            "LS",
            "LT",
            "LU",
            "LV",
            "MA",
            "MC",
            "MD",
            "ME",
            "MH",
            "MK",
            "ML",
            "MN",
            "MO",
            "MR",
            "MT",
            "MV",
            "MW",
            "MX",
            "MY",
            "NA",
            "NE",
            "NG",
            "NI",
            "NL",
            "NO",
            "NP",
            "NR",
            "NZ",
            "OM",
            "PA",
            "PE",
            "PG",
            "PH",
            "PK",
            "PL",
            "PS",
            "PT",
            "PW",
            "PY",
            "QA",
            "RO",
            "RS",
            "RU",
            "RW",
            "SA",
            "SB",
            "SC",
            "SE",
            "SG",
            "SI",
            "SK",
            "SL",
            "SM",
            "SN",
            "SR",
            "ST",
            "SV",
            "SZ",
            "TD",
            "TG",
            "TH",
            "TL",
            "TN",
            "TO",
            "TR",
            "TT",
            "TV",
            "TW",
            "TZ",
            "UA",
            "UG",
            "US",
            "UY",
            "UZ",
            "VC",
            "VN",
            "VU",
            "WS",
            "XK",
            "ZA",
            "ZW"
          ],
          "external_urls": {
            "spotify": "https://open.spotify.com/album/7qwjVee8U03DHeRqHt0KO0"
          },
          "href": "https://api.spotify.com/v1/albums/7qwjVee8U03DHeRqHt0KO0",
          "id": "7qwjVee8U03DHeRqHt0KO0",
          "images": [
            {
              "height": 640,
              "url": "https://i.scdn.co/image/ab67616d0000b27325554ba08fe5634e200a11fe",
              "width": 640
            },
            {
              "height": 300,
              "url": "https://i.scdn.co/image/ab67616d00001e0225554ba08fe5634e200a11fe",
              "width": 300
            },
            {
              "height": 64,
              "url": "https://i.scdn.co/image/ab67616d0000485125554ba08fe5634e200a11fe",
              "width": 64
            }
          ],
          "name": "Star Boy Classics",
          "release_date": "2013",
          "release_date_precision": "year",
          "total_tracks": 29,
          "type": "album",
          "uri": "spotify:album:7qwjVee8U03DHeRqHt0KO0"
        },
        "artists": [
          {
            "external_urls": {
              "spotify": "https://open.spotify.com/artist/4Q9khBHqAxg0ztp6AvWI6x"
            },
            "href": "https://api.spotify.com/v1/artists/4Q9khBHqAxg0ztp6AvWI6x",
            "id": "4Q9khBHqAxg0ztp6AvWI6x",
            "name": "STARBOY",
            "type": "artist",
            "uri": "spotify:artist:4Q9khBHqAxg0ztp6AvWI6x"
          }
        ],
        "available_markets": [
          "AD",
          "AE",
          "AG",
          "AL",
          "AM",
          "AR",
          "AT",
          "AU",
          "AZ",
          "BA",
          "BB",
          "BD",
          "BE",
          "BF",
          "BG",
          "BH",
          "BI",
          "BN",
          "BO",
          "BR",
          "BS",
          "BT",
          "BW",
          "BY",
          "BZ",
          "CA",
          "CH",
          "CL",
          "CM",
          "CO",
          "CR",
          "CV",
          "CY",
          "CZ",
          "DE",
          "DK",
          "DM",
          "DO",
          "DZ",
          "EC",
          "EE",
          "EG",
          "ES",
          "FI",
          "FJ",
          "FM",
          "FR",
          "GA",
          "GB",
          "GD",
          "GE",
          "GH",
          "GM",
          "GN",
          "GQ",
          "GR",
          "GT",
          "GW",
          "GY",
          "HK",
          "HN",
          "HR",
          "HT",
          "HU",
          "ID",
          "IE",
          "IL",
          "IN",
          "IS",
          "IT",
          "JM",
          "JO",
          "JP",
          "KE",
          "KG",
          "KH",
          "KI",
          "KM",
          "KN",
          "KR",
          "KW",
          "KZ",
          "LA",
          "LB",
          "LC",
          "LI",
          "LK",
          "LR",
          "LS",
          "LT",
          "LU",
          "LV",
          "MA",
          "MC",
          "MD",
          "ME",
          "MH",
          "MK",
          "ML",
          "MN",
          "MO",
          "MR",
          "MT",
          "MV",
          "MW",
          "MX",
          "MY",
          "NA",
          "NE",
          "NG",
          "NI",
          "NL",
          "NO",
          "NP",
          "NR",
          "NZ",
          "OM",
          "PA",
          "PE",
          "PG",
          "PH",
          "PK",
          "PL",
          "PS",
          "PT",
          "PW",
          "PY",
          "QA",
          "RO",
          "RS",
          "RU",
          "RW",
          "SA",
          "SB",
          "SC",
          "SE",
          "SG",
          "SI",
          "SK",
          "SL",
          "SM",
          "SN",
          "SR",
          "ST",
          "SV",
          "SZ",
          "TD",
          "TG",
          "TH",
          "TL",
          "TN",
          "TO",
          "TR",
          "TT",
          "TV",
          "TW",
          "TZ",
          "UA",
          "UG",
          "US",
          "UY",
          "UZ",
          "VC",
          "VN",
          "VU",
          "WS",
          "XK",
          "ZA",
          "ZW"
        ],
        "disc_number": 1,
        "duration_ms": 253140,
        "explicit": false,
        "external_ids": {
          "isrc": "GBLFP1926668"
        },
        "external_urls": {
          "spotify": "https://open.spotify.com/track/4RM2mgxP0Lvfr3QBZ99xoM"
        },
        "href": "https://api.spotify.com/v1/tracks/4RM2mgxP0Lvfr3QBZ99xoM",
        "id": "4RM2mgxP0Lvfr3QBZ99xoM",
        "is_local": false,
        "name": "Ojuelegba - Remix",
        "popularity": 36,
        "preview_url": "https://p.scdn.co/mp3-preview/2a333d5fa25e6ed65dc1ca495f9b07c14a9baca3?cid=774b29d4f13844c495f206cafdad9c86",
        "track_number": 19,
        "type": "track",
        "uri": "spotify:track:4RM2mgxP0Lvfr3QBZ99xoM"
      },
      {
        "album": {
          "album_type": "single",
          "artists": [
            {
              "external_urls": {
                "spotify": "https://open.spotify.com/artist/4Q9khBHqAxg0ztp6AvWI6x"
              },
              "href": "https://api.spotify.com/v1/artists/4Q9khBHqAxg0ztp6AvWI6x",
              "id": "4Q9khBHqAxg0ztp6AvWI6x",
              "name": "STARBOY",
              "type": "artist",
              "uri": "spotify:artist:4Q9khBHqAxg0ztp6AvWI6x"
            }
          ],
          "available_markets": [
            "AD",
            "AE",
            "AG",
            "AL",
            "AM",
            "AR",
            "AT",
            "AU",
            "AZ",
            "BA",
            "BB",
            "BD",
            "BE",
            "BF",
            "BG",
            "BH",
            "BI",
            "BN",
            "BO",
            "BR",
            "BS",
            "BT",
            "BW",
            "BY",
            "BZ",
            "CA",
            "CH",
            "CL",
            "CM",
            "CO",
            "CR",
            "CV",
            "CY",
            "CZ",
            "DE",
            "DK",
            "DM",
            "DO",
            "DZ",
            "EC",
            "EE",
            "EG",
            "ES",
            "FI",
            "FJ",
            "FM",
            "FR",
            "GA",
            "GB",
            "GD",
            "GE",
            "GH",
            "GM",
            "GN",
            "GQ",
            "GR",
            "GT",
            "GW",
            "GY",
            "HK",
            "HN",
            "HR",
            "HT",
            "HU",
            "ID",
            "IE",
            "IL",
            "IN",
            "IS",
            "IT",
            "JM",
            "JO",
            "JP",
            "KE",
            "KG",
            "KH",
            "KI",
            "KM",
            "KN",
            "KR",
            "KW",
            "KZ",
            "LA",
            "LB",
            "LC",
            "LI",
            "LK",
            "LR",
            "LS",
            "LT",
            "LU",
            "LV",
            "MA",
            "MC",
            "MD",
            "ME",
            "MH",
            "MK",
            "ML",
            "MN",
            "MO",
            "MR",
            "MT",
            "MV",
            "MW",
            "MX",
            "MY",
            "NA",
            "NE",
            "NG",
            "NI",
            "NL",
            "NO",
            "NP",
            "NR",
            "NZ",
            "OM",
            "PA",
            "PE",
            "PG",
            "PH",
            "PK",
            "PL",
            "PS",
            "PT",
            "PW",
            "PY",
            "QA",
            "RO",
            "RS",
            "RU",
            "RW",
            "SA",
            "SB",
            "SC",
            "SE",
            "SG",
            "SI",
            "SK",
            "SL",
            "SM",
            "SN",
            "SR",
            "ST",
            "SV",
            "SZ",
            "TD",
            "TG",
            "TH",
            "TL",
            "TN",
            "TO",
            "TR",
            "TT",
            "TV",
            "TW",
            "TZ",
            "UA",
            "UG",
            "US",
            "UY",
            "UZ",
            "VC",
            "VN",
            "VU",
            "WS",
            "XK",
            "ZA",
            "ZW"
          ],
          "external_urls": {
            "spotify": "https://open.spotify.com/album/4IHXPSnuG5BGa1sbxnbkUO"
          },
          "href": "https://api.spotify.com/v1/albums/4IHXPSnuG5BGa1sbxnbkUO",
          "id": "4IHXPSnuG5BGa1sbxnbkUO",
          "images": [
            {
              "height": 640,
              "url": "https://i.scdn.co/image/ab67616d0000b2736ca14e4c3be391a4a2949c00",
              "width": 640
            },
            {
              "height": 300,
              "url": "https://i.scdn.co/image/ab67616d00001e026ca14e4c3be391a4a2949c00",
              "width": 300
            },
            {
              "height": 64,
              "url": "https://i.scdn.co/image/ab67616d000048516ca14e4c3be391a4a2949c00",
              "width": 64
            }
          ],
          "name": "Ojuelegba",
          "release_date": "2015",
          "release_date_precision": "year",
          "total_tracks": 1,
          "type": "album",
          "uri": "spotify:album:4IHXPSnuG5BGa1sbxnbkUO"
        },
        "artists": [
          {
            "external_urls": {
              "spotify": "https://open.spotify.com/artist/4Q9khBHqAxg0ztp6AvWI6x"
            },
            "href": "https://api.spotify.com/v1/artists/4Q9khBHqAxg0ztp6AvWI6x",
            "id": "4Q9khBHqAxg0ztp6AvWI6x",
            "name": "STARBOY",
            "type": "artist",
            "uri": "spotify:artist:4Q9khBHqAxg0ztp6AvWI6x"
          },
          {
            "external_urls": {
              "spotify": "https://open.spotify.com/artist/3tVQdUvClmAT7URs9V3rsp"
            },
            "href": "https://api.spotify.com/v1/artists/3tVQdUvClmAT7URs9V3rsp",
            "id": "3tVQdUvClmAT7URs9V3rsp",
            "name": "WizKid",
            "type": "artist",
            "uri": "spotify:artist:3tVQdUvClmAT7URs9V3rsp"
          }
        ],
        "available_markets": [
          "AD",
          "AE",
          "AG",
          "AL",
          "AM",
          "AR",
          "AT",
          "AU",
          "AZ",
          "BA",
          "BB",
          "BD",
          "BE",
          "BF",
          "BG",
          "BH",
          "BI",
          "BN",
          "BO",
          "BR",
          "BS",
          "BT",
          "BW",
          "BY",
          "BZ",
          "CA",
          "CH",
          "CL",
          "CM",
          "CO",
          "CR",
          "CV",
          "CY",
          "CZ",
          "DE",
          "DK",
          "DM",
          "DO",
          "DZ",
          "EC",
          "EE",
          "EG",
          "ES",
          "FI",
          "FJ",
          "FM",
          "FR",
          "GA",
          "GB",
          "GD",
          "GE",
          "GH",
          "GM",
          "GN",
          "GQ",
          "GR",
          "GT",
          "GW",
          "GY",
          "HK",
          "HN",
          "HR",
          "HT",
          "HU",
          "ID",
          "IE",
          "IL",
          "IN",
          "IS",
          "IT",
          "JM",
          "JO",
          "JP",
          "KE",
          "KG",
          "KH",
          "KI",
          "KM",
          "KN",
          "KR",
          "KW",
          "KZ",
          "LA",
          "LB",
          "LC",
          "LI",
          "LK",
          "LR",
          "LS",
          "LT",
          "LU",
          "LV",
          "MA",
          "MC",
          "MD",
          "ME",
          "MH",
          "MK",
          "ML",
          "MN",
          "MO",
          "MR",
          "MT",
          "MV",
          "MW",
          "MX",
          "MY",
          "NA",
          "NE",
          "NG",
          "NI",
          "NL",
          "NO",
          "NP",
          "NR",
          "NZ",
          "OM",
          "PA",
          "PE",
          "PG",
          "PH",
          "PK",
          "PL",
          "PS",
          "PT",
          "PW",
          "PY",
          "QA",
          "RO",
          "RS",
          "RU",
          "RW",
          "SA",
          "SB",
          "SC",
          "SE",
          "SG",
          "SI",
          "SK",
          "SL",
          "SM",
          "SN",
          "SR",
          "ST",
          "SV",
          "SZ",
          "TD",
          "TG",
          "TH",
          "TL",
          "TN",
          "TO",
          "TR",
          "TT",
          "TV",
          "TW",
          "TZ",
          "UA",
          "UG",
          "US",
          "UY",
          "UZ",
          "VC",
          "VN",
          "VU",
          "WS",
          "XK",
          "ZA",
          "ZW"
        ],
        "disc_number": 1,
        "duration_ms": 215457,
        "explicit": false,
        "external_ids": {
          "isrc": "GBMA21914247"
        },
        "external_urls": {
          "spotify": "https://open.spotify.com/track/6K2WczS68zvWIQffONnIoM"
        },
        "href": "https://api.spotify.com/v1/tracks/6K2WczS68zvWIQffONnIoM",
        "id": "6K2WczS68zvWIQffONnIoM",
        "is_local": false,
        "name": "Ojuelegba",
        "popularity": 22,
        "preview_url": "https://p.scdn.co/mp3-preview/d358583a0daf7b64f8bd5a6fa5dbcd039c10f13c?cid=774b29d4f13844c495f206cafdad9c86",
        "track_number": 1,
        "type": "track",
        "uri": "spotify:track:6K2WczS68zvWIQffONnIoM"
      }
    ],
    "limit": 3,
    "next": "https://api.spotify.com/v1/search?query=ojue&type=track&offset=3&limit=3",
    "offset": 0,
    "previous": null,
    "total": 89
  }
}
